{
  "page": 1,
  "per_page": 6,
  "total": 12,
  "total_pages": 2,
  "data": [
    {
      "id": 1,
      "title": "george.bluth@reqres.in",
      "remark": "George"
    },
    {
      "id": 2,
      "title": "janet.weaver@reqres.in",
      "remark": "Janet"
    },
    {
      "id": 3,
      "title": "emma.wong@reqres.in",
      "remark": "Emma"
    },
    {
      "id": 4,
      "title": "eve.holt@reqres.in",
      "remark": "Eve"
    }
  ],
  "support": {
    "url": "https://reqres.in/#support-heading",
    "text": "To keep ReqRes free, contributions towards server costs are appreciated!"
  }
}
